module gitlab.com/remotejob/go-sql-boiler-example

go 1.18

require (
	github.com/friendsofgo/errors v0.9.2
	github.com/lib/pq v1.10.7
	github.com/volatiletech/null/v8 v8.1.2
	github.com/volatiletech/sqlboiler/v4 v4.14.2
	github.com/volatiletech/strmangle v0.0.4
)

require (
	github.com/Masterminds/goutils v1.1.1 // indirect
	github.com/Masterminds/semver/v3 v3.1.1 // indirect
	github.com/Masterminds/sprig/v3 v3.2.2 // indirect
	github.com/fsnotify/fsnotify v1.5.4 // indirect
	github.com/gofrs/uuid v4.4.0+incompatible // indirect
	github.com/google/uuid v1.3.0 // indirect
	github.com/hashicorp/hcl v1.0.0 // indirect
	github.com/huandu/xstrings v1.3.2 // indirect
	github.com/imdario/mergo v0.3.13 // indirect
	github.com/inconshreveable/mousetrap v1.0.1 // indirect
	github.com/magiconair/properties v1.8.6 // indirect
	github.com/mitchellh/copystructure v1.2.0 // indirect
	github.com/mitchellh/mapstructure v1.5.0 // indirect
	github.com/mitchellh/reflectwalk v1.0.2 // indirect
	github.com/pelletier/go-toml v1.9.5 // indirect
	github.com/shopspring/decimal v1.3.1 // indirect
	github.com/spf13/afero v1.9.2 // indirect
	github.com/spf13/cast v1.5.0 // indirect
	github.com/spf13/cobra v1.5.0 // indirect
	github.com/spf13/jwalterweatherman v1.1.0 // indirect
	github.com/spf13/pflag v1.0.5 // indirect
	github.com/spf13/viper v1.12.0 // indirect
	github.com/subosito/gotenv v1.4.1 // indirect
	github.com/volatiletech/inflect v0.0.1 // indirect
	github.com/volatiletech/randomize v0.0.1 // indirect
	golang.org/x/crypto v0.0.0-20220826181053-bd7e27e6170d // indirect
	golang.org/x/sys v0.0.0-20220825204002-c680a09ffe64 // indirect
	golang.org/x/text v0.3.7 // indirect
	golang.org/x/xerrors v0.0.0-20220907171357-04be3eba64a2 // indirect
	gopkg.in/ini.v1 v1.67.0 // indirect
	gopkg.in/yaml.v2 v2.4.0 // indirect
)
